<svg id="Layer_2" data-name="Layer 2" xmlns="http://www.w3.org/2000/svg" width="10.787" height="18.204" viewBox="0 0 10.787 18.204">
  <g id="Capa_1" data-name="Capa 1">
    <path id="Path_38" data-name="Path 38" d="M9.467,0H1.32A1.321,1.321,0,0,0,0,1.32V16.884A1.321,1.321,0,0,0,1.32,18.2H9.467a1.321,1.321,0,0,0,1.32-1.32V1.32A1.321,1.321,0,0,0,9.467,0ZM.711,1.32A.609.609,0,0,1,1.32.711H9.467a.609.609,0,0,1,.609.609V14.7H.711Zm9.365,15.565a.609.609,0,0,1-.609.609H1.32a.609.609,0,0,1-.609-.609V15.412h9.365Z" fill="#fff"/>
    <path id="Path_39" data-name="Path 39" d="M132.356,41.071h.69a.356.356,0,1,0,0-.711h-.69a.356.356,0,0,0,0,.711Z" transform="translate(-127.307 -38.925)" fill="#5c2568"/>
    <path id="Path_40" data-name="Path 40" d="M132.356,453.441h.69a.356.356,0,1,0,0-.711h-.69a.356.356,0,0,0,0,.711Z" transform="translate(-127.307 -436.633)" fill="#5c2568"/>
    <path id="Path_41" data-name="Path 41" d="M70.8,153.819a.536.536,0,0,1-.18.4,4.413,4.413,0,0,1-2.9,1.175,5.044,5.044,0,0,1-2.892-1.173.537.537,0,0,1-.192-.41V151.1a11.247,11.247,0,0,0,1.475-.537c.968-.43,1.116-.658,1.609-.67.462-.011.638.182,1.742.67.569.251,1.041.429,1.341.537Z" transform="translate(-62.332 -144.567)" fill="#5c2568"/>
    <path id="Path_42" data-name="Path 42" d="M67.714,149.9c-.493.012-.64.24-1.609.67a11.247,11.247,0,0,1-1.475.537v2.708a.537.537,0,0,0,.191.411,5.133,5.133,0,0,0,1.031.668V153.5a1.221,1.221,0,0,1,.619-1.065,5.8,5.8,0,0,0,2.1-2.281A1.669,1.669,0,0,0,67.714,149.9Z" transform="translate(-62.332 -144.567)" fill="#fafbfc" opacity="0.04"/>
    <path id="Path_43" data-name="Path 43" d="M39.022,147.039a.517.517,0,0,0-.53.014l-.423.265c-.424-.154-.853-.325-1.271-.511-.346-.153-.6-.276-.8-.374a1.951,1.951,0,0,0-1-.308,1.742,1.742,0,0,0-.869.291c-.194.1-.435.233-.791.391a11.21,11.21,0,0,1-1.4.513l-.427-.267a.522.522,0,0,0-.8.443v1.579a.52.52,0,0,0,.245.443l.827.517v.138a.668.668,0,0,0,.24.514,5.133,5.133,0,0,0,2.978,1.2,4.523,4.523,0,0,0,2.993-1.209.671.671,0,0,0,.225-.5v-.093l.827-.517a.519.519,0,0,0,.245-.443V147.5A.516.516,0,0,0,39.022,147.039ZM31.1,149.291a.254.254,0,0,1-.119-.215V147.5a.255.255,0,0,1,.389-.215l.416.26v2.178Zm6.854.889a.4.4,0,0,1-.135.3A4.256,4.256,0,0,1,35,151.622a4.937,4.937,0,0,1-2.806-1.141.4.4,0,0,1-.142-.308v-2.605a11.448,11.448,0,0,0,1.4-.514c.364-.162.611-.294.809-.4a1.487,1.487,0,0,1,.75-.259,1.729,1.729,0,0,1,.876.281c.2.1.46.224.81.379.416.183.84.356,1.261.508Zm1.073-1.053a.252.252,0,0,1-.119.215l-.685.427V147.54l.416-.26a.254.254,0,0,1,.389.215Z" transform="translate(-29.618 -140.929)" fill="#5c2568"/>
    <path id="Path_44" data-name="Path 44" d="M86.091,206.71l-.091.252a6.791,6.791,0,0,0,4.651,0l-.092-.252a6.53,6.53,0,0,1-4.467,0Z" transform="translate(-82.942 -199.36)" fill="#fede00"/>
    <path id="Path_45" data-name="Path 45" d="M88.325,241.044a6.507,6.507,0,0,1-2.234-.394L86,240.9a6.8,6.8,0,0,0,4.651,0l-.092-.252a6.5,6.5,0,0,1-2.235.394Z" transform="translate(-82.942 -232.094)" fill="#fede00"/>
  </g>
</svg>
