<svg xmlns="http://www.w3.org/2000/svg" width="324" height="324" viewBox="0 0 324 324">
  <g id="hutop-adm-icn" transform="translate(0 0)">
    <g id="Group_87" data-name="Group 87" transform="translate(0 0.001)">
      <path id="Path_65" data-name="Path 65" d="M310.062,271.62l-69.077-22.388a15.664,15.664,0,0,0-5.114-.832H234.9l-14.58-19.44a5.4,5.4,0,0,0-3.64-2.117,4.694,4.694,0,0,0-.68.054v-.1h-5.4V209.552a55.778,55.778,0,0,0,21.6-44.042v-44.4a5.332,5.332,0,0,0,2.657-.691,5.4,5.4,0,0,0,2.743-4.7V72.97l27-10.951V70.2A10.8,10.8,0,0,0,253.8,81v32.4a10.8,10.8,0,0,0,10.8,10.8h10.8a10.8,10.8,0,0,0,10.8-10.8V81a10.8,10.8,0,0,0-10.8-10.8V54a5.4,5.4,0,0,0-3.175-4.925l-108-48.6a5.4,5.4,0,0,0-4.428,0l-108,48.6a5.4,5.4,0,0,0,.184,9.931L86.4,72.97v42.752a5.4,5.4,0,0,0,5.4,5.4V165.51a55.778,55.778,0,0,0,21.6,44.042V226.8H108v.1a4.692,4.692,0,0,0-.68-.054,5.4,5.4,0,0,0-3.64,2.117L89.1,248.4h-.972a15.458,15.458,0,0,0-5.011.8l-69.5,22.529A21.423,21.423,0,0,0,0,291.762V318.6A5.4,5.4,0,0,0,5.4,324H318.6a5.4,5.4,0,0,0,5.4-5.4V291.762A21.513,21.513,0,0,0,310.062,271.62ZM275.4,81v32.4H264.6V81ZM215.039,239.9l9.855,13.171L183.816,289.58,170.1,275.848ZM162,268.483l-37.8-30.24V216.157a55.446,55.446,0,0,0,23.49,5.243h28.62a55.446,55.446,0,0,0,23.49-5.243v22.086ZM91,48.665A5.4,5.4,0,0,0,86.4,54v7.317l-18.668-7.56L162,11.34l94.268,42.417L237.6,61.317V54a5.4,5.4,0,0,0-4.579-5.335l-70.2-10.8a5.216,5.216,0,0,0-1.62,0ZM97.092,70.2a5.169,5.169,0,0,0,.108-.864v-10.7L162,48.665l64.8,9.968v10.7a5.169,5.169,0,0,0,.108.864H226.8v36.882a66.823,66.823,0,0,0-24.3-4.482,61.481,61.481,0,0,0-37.514,11.95A38.123,38.123,0,0,0,162,117.11c-.929-.875-1.912-1.723-2.975-2.549A61.465,61.465,0,0,0,121.5,102.6a66.823,66.823,0,0,0-24.3,4.482V70.2Zm5.508,95.31V116.689a56.087,56.087,0,0,1,18.9-3.289,50.5,50.5,0,0,1,30.85,9.65,28.255,28.255,0,0,1,5.319,5.346,5.4,5.4,0,0,0,8.64,0,28.35,28.35,0,0,1,5.33-5.357A50.508,50.508,0,0,1,202.5,113.4a56.087,56.087,0,0,1,18.9,3.289V165.51a45.144,45.144,0,0,1-45.09,45.09H147.69A45.144,45.144,0,0,1,102.6,165.51Zm6.377,74.385L153.9,275.848,140.184,289.58,99.106,253.066ZM313.2,313.2H10.8V291.762a10.6,10.6,0,0,1,6.48-9.882l69.277-22.442a4.8,4.8,0,0,1,1.571-.238h1.62l47.066,41.834a5.4,5.4,0,0,0,7.4-.216L162,283.036l17.782,17.782a5.4,5.4,0,0,0,7.4.216L234.252,259.2h1.62a4.971,4.971,0,0,1,1.679.275l68.861,22.3a10.675,10.675,0,0,1,6.788,9.99Z" transform="translate(0 -0.001)" fill="#fff"/>
    </g>
  </g>
</svg>
